{
  "code": 200,
  "message": "操作成功",
  "data": {
    "page": 1,
    "limit": 20,
    "totalPage": 1031,
    "total": 20617,
    "list": [
      {
        "hangingId": 1293125,
        "hangingNo": "35694165422734220673901",
        "shardId": 2166,
        "image": "https://img.42verse.shop/crmebimage/public/content/2022/05/29/add6c171e2a44590aa7e72a6609912dc3t0l9snyqu.jpg",
        "storeName": "想在你怀里做一只小猫",
        "salePrice": "4648.00",
        "productId": 129,
        "saleStatus": 1,
        "creatorName": "瞐艺术",
        "chainAccountAddress": "i5QkuR1a8r38D85qENfMoJJxtmazRtfs8",
        "createTime": "2022-06-03 11:35:42",
        "updateTime": "2022-06-03 11:35:42",
        "blindBoxLevelIcon": ""
      },
      {
        "hangingId": 1293124,
        "hangingNo": "38571165422733927967599",
        "shardId": 7272,
        "image": "https://img.42verse.shop/crmebimage/public/content/2022/04/10/507917450d1f4045a87f4522bb1dee2acnicp1eipz.jpg",
        "storeName": "创世纪-DAY5",
        "salePrice": "1501.00",
        "productId": 49,
        "saleStatus": 1,
        "creatorName": "42-FutureLab",
        "chainAccountAddress": "oHcR8BkwWMmuBYDj6gbUFBGRVLv7rrnLK",
        "createTime": "2022-06-03 11:35:39",
        "updateTime": "2022-06-03 11:35:39",
        "blindBoxLevelIcon": ""
      },
      {
        "hangingId": 1293123,
        "hangingNo": "63167165422733911336853",
        "shardId": 17473,
        "image": "https://img.42verse.shop/crmebimage/public/content/2022/05/18/848326cc05794bcea537a9e157b1e5dal2u836fbrv.JPG",
        "storeName": "POC-不信谣不传谣",
        "salePrice": "1360.00",
        "productId": 106,
        "saleStatus": 1,
        "creatorName": "42VERSE Community",
        "chainAccountAddress": "avEhT7PA8y7Rreyf28dXpxFFFVE6M87VE",
        "createTime": "2022-06-03 11:35:39",
        "updateTime": "2022-06-03 11:35:39",
        "blindBoxLevelIcon": ""
      },
      {
        "hangingId": 1293122,
        "hangingNo": "14233165422733833195510",
        "shardId": 441,
        "image": "https://img.42verse.shop/crmebimage/public/content/2022/05/05/57ddd75cff46435e8d7c4333dae51433qmyrhvzyiv.jpg",
        "storeName": "POC-搭建共识",
        "salePrice": "7688.00",
        "productId": 67,
        "saleStatus": 1,
        "creatorName": "42VERSE Community",
        "chainAccountAddress": "TTXXxgn3EMxhV7NqxpU6gkxNfkjd9gQVo",
        "createTime": "2022-06-03 11:35:38",
        "updateTime": "2022-06-03 11:35:38",
        "blindBoxLevelIcon": ""
      },
      {
        "hangingId": 1293121,
        "hangingNo": "57654165422733763139958",
        "shardId": 31856,
        "image": "https://img.42verse.shop/crmebimage/public/content/2022/05/18/848326cc05794bcea537a9e157b1e5dal2u836fbrv.JPG",
        "storeName": "POC-不信谣不传谣",
        "salePrice": "1385.00",
        "productId": 106,
        "saleStatus": 1,
        "creatorName": "42VERSE Community",
        "chainAccountAddress": "Zk6hjfukpr4vbLxCVnL34V9sfBBBmYBmz",
        "createTime": "2022-06-03 11:35:38",
        "updateTime": "2022-06-03 11:35:37",
        "blindBoxLevelIcon": ""
      },
      {
        "hangingId": 1293120,
        "hangingNo": "74749165422733759953361",
        "shardId": 506,
        "image": "https://img.42verse.shop/crmebimage/public/content/2022/05/20/66c30d2f47e14d7f86bde72656386ac8867cnunnds.jpg",
        "storeName": "魔法扫帚",
        "salePrice": "1829.00",
        "productId": 111,
        "saleStatus": 1,
        "creatorName": "瞐艺术",
        "chainAccountAddress": "oWKYpmpi7jH56eiKf2EhVYh7wa26f4EyU",
        "createTime": "2022-06-03 11:35:38",
        "updateTime": "2022-06-03 11:35:37",
        "blindBoxLevelIcon": ""
      },
      {
        "hangingId": 1293119,
        "hangingNo": "72828165422733708327473",
        "shardId": 607,
        "image": "https://img.42verse.shop/crmebimage/public/maintain/2022/05/28/caf4f672980d42d7a52c7be01b853e90mvno223z4g.jpg",
        "storeName": "浮峦暖翠",
        "salePrice": "4799.00",
        "productId": 103,
        "saleStatus": 1,
        "creatorName": "千之堂",
        "chainAccountAddress": "gqmuwJ5xXkhAZeF9ZkyVW2pbhrVniESdW",
        "createTime": "2022-06-03 11:35:37",
        "updateTime": "2022-06-03 11:35:37",
        "blindBoxLevelIcon": ""
      },
      {
        "hangingId": 1293118,
        "hangingNo": "80411165422733658088901",
        "shardId": 264,
        "image": "https://img.42verse.shop/crmebimage/public/content/2022/05/26/1f4f270b37124d0a8aa0775b4bba844dvdxsn87cpp.jpg",
        "storeName": "饮之太和",
        "salePrice": "15000.00",
        "productId": 123,
        "saleStatus": 1,
        "creatorName": "贾志发",
        "chainAccountAddress": "eKTFbFhkeR8zMSYVzsNQtEarMJG6za1Vy",
        "createTime": "2022-06-03 11:35:37",
        "updateTime": "2022-06-03 11:35:36",
        "blindBoxLevelIcon": ""
      },
      {
        "hangingId": 1293117,
        "hangingNo": "41865165422733593351937",
        "shardId": 69819,
        "image": "https://img.42verse.shop/crmebimage/public/content/2022/05/18/848326cc05794bcea537a9e157b1e5dal2u836fbrv.JPG",
        "storeName": "POC-不信谣不传谣",
        "salePrice": "1600.00",
        "productId": 106,
        "saleStatus": 1,
        "creatorName": "42VERSE Community",
        "chainAccountAddress": "SBMdhtobSzHSSc2Jscn8uxndM7ASg7en9",
        "createTime": "2022-06-03 11:35:36",
        "updateTime": "2022-06-03 11:35:35",
        "blindBoxLevelIcon": ""
      },
      {
        "hangingId": 1293116,
        "hangingNo": "89925165422733450712002",
        "shardId": 320,
        "image": "https://img.42verse.shop/crmebimage/public/content/2022/05/08/dc560a16d7184f5192fae3ec0c4043a5cmgcr57x7o.jpg",
        "storeName": "烙画姑苏繁华图-虎丘",
        "salePrice": "4700.00",
        "productId": 84,
        "saleStatus": 1,
        "creatorName": "允中艺术馆",
        "chainAccountAddress": "XUw9U34YcHMZ9h6CVwQvAUpzyo2Q5koGu",
        "createTime": "2022-06-03 11:35:35",
        "updateTime": "2022-06-03 11:35:34",
        "blindBoxLevelIcon": ""
      },
      {
        "hangingId": 1293115,
        "hangingNo": "29770165422733348311680",
        "shardId": 67661,
        "image": "https://img.42verse.shop/crmebimage/public/content/2022/05/18/848326cc05794bcea537a9e157b1e5dal2u836fbrv.JPG",
        "storeName": "POC-不信谣不传谣",
        "salePrice": "1550.00",
        "productId": 106,
        "saleStatus": 1,
        "creatorName": "42VERSE Community",
        "chainAccountAddress": "U2LA4VamE7QvhHper364uLLsdNc8wHD5z",
        "createTime": "2022-06-03 11:35:33",
        "updateTime": "2022-06-03 11:35:33",
        "blindBoxLevelIcon": ""
      },
      {
        "hangingId": 1293114,
        "hangingNo": "14948165422733211015572",
        "shardId": 515,
        "image": "https://img.42verse.shop/crmebimage/public/content/2022/05/23/ff77f51a353b414eb65bac7a86cbbd36ymbcctvsbg.jpg",
        "storeName": "青稞丰收-勤劳",
        "salePrice": "7999.00",
        "productId": 116,
        "saleStatus": 1,
        "creatorName": "德琴阳光庄园",
        "chainAccountAddress": "ZZL9qk8eoEMRSGaB41WPpCUacrCy6QjCR",
        "createTime": "2022-06-03 11:35:32",
        "updateTime": "2022-06-03 11:35:32",
        "blindBoxLevelIcon": ""
      },
      {
        "hangingId": 1293113,
        "hangingNo": "71240165422732830361541",
        "shardId": 249,
        "image": "https://img.42verse.shop/crmebimage/public/content/2022/05/24/ccdc5437633a4b5d96dfe94372180c1emtnqhh3gf7.jpg",
        "storeName": "小达",
        "salePrice": "8199.00",
        "productId": 118,
        "saleStatus": 1,
        "creatorName": "瞐艺术",
        "chainAccountAddress": "khaom3gVy2EQQMECyTap6jmQYrdS15VUm",
        "createTime": "2022-06-03 11:35:28",
        "updateTime": "2022-06-03 11:35:28",
        "blindBoxLevelIcon": ""
      },
      {
        "hangingId": 1293112,
        "hangingNo": "46514165422732816393585",
        "shardId": 9773,
        "image": "https://img.42verse.shop/crmebimage/public/content/2022/04/07/615efd197f324daa9daa7f9eb8b933a5fb1tltuepz.jpg",
        "storeName": "创世纪-DAY2",
        "salePrice": "1520.00",
        "productId": 45,
        "saleStatus": 1,
        "creatorName": "42-FutureLab",
        "chainAccountAddress": "oVBv6w5oEG7guhX5DMoPq6hzdF2wFxTvd",
        "createTime": "2022-06-03 11:35:28",
        "updateTime": "2022-06-03 11:35:28",
        "blindBoxLevelIcon": ""
      },
      {
        "hangingId": 1293111,
        "hangingNo": "47701165422732786911648",
        "shardId": 4533,
        "image": "https://img.42verse.shop/crmebimage/public/content/2022/04/10/507917450d1f4045a87f4522bb1dee2acnicp1eipz.jpg",
        "storeName": "创世纪-DAY5",
        "salePrice": "1500.00",
        "productId": 49,
        "saleStatus": 1,
        "creatorName": "42-FutureLab",
        "chainAccountAddress": "efu3ueynnX2N1k6hcaYqmaXJvQWgLQwLb",
        "createTime": "2022-06-03 11:35:28",
        "updateTime": "2022-06-03 11:35:27",
        "blindBoxLevelIcon": ""
      },
      {
        "hangingId": 1293110,
        "hangingNo": "31337165422732753330711",
        "shardId": 491,
        "image": "https://img.42verse.shop/crmebimage/public/content/2022/05/18/b67af5c7ae9d4171b95d284a55de9c275eup4tfc80.jpg",
        "storeName": "七彩少女-凤凰七彩",
        "salePrice": "68888.00",
        "productId": 108,
        "saleStatus": 1,
        "creatorName": "小白",
        "chainAccountAddress": "XbyVp98nPDMMUZzG4kBUuZYSW4AbwHJsR",
        "createTime": "2022-06-03 11:35:28",
        "updateTime": "2022-06-03 11:35:27",
        "blindBoxLevelIcon": ""
      },
      {
        "hangingId": 1293109,
        "hangingNo": "45511165422732733857070",
        "shardId": 9096,
        "image": "https://img.42verse.shop/crmebimage/public/content/2022/04/11/a114a2e5224b4055908a3c63c7a6f3d2a0rt4nq3qs.jpg",
        "storeName": "创世纪-DAY7",
        "salePrice": "1500.00",
        "productId": 51,
        "saleStatus": 1,
        "creatorName": "42-FutureLab",
        "chainAccountAddress": "YhHUMCUpuUsTgrxMq8AowMSqNCoa3X53S",
        "createTime": "2022-06-03 11:35:27",
        "updateTime": "2022-06-03 11:35:27",
        "blindBoxLevelIcon": ""
      },
      {
        "hangingId": 1293107,
        "hangingNo": "50208165422732650335793",
        "shardId": 38674,
        "image": "https://img.42verse.shop/crmebimage/public/content/2022/05/18/848326cc05794bcea537a9e157b1e5dal2u836fbrv.JPG",
        "storeName": "POC-不信谣不传谣",
        "salePrice": "1400.00",
        "productId": 106,
        "saleStatus": 1,
        "creatorName": "42VERSE Community",
        "chainAccountAddress": "XvcAypzHY8pEKzbXQj4JoQzSWMJDWb6iE",
        "createTime": "2022-06-03 11:35:27",
        "updateTime": "2022-06-03 11:35:26",
        "blindBoxLevelIcon": ""
      },
      {
        "hangingId": 1293106,
        "hangingNo": "39951165422732591484533",
        "shardId": 365,
        "image": "https://img.42verse.shop/crmebimage/public/content/2022/05/14/e107de812f9f429782e14584602d3823m3o974d6pa.png",
        "storeName": "人造人42号-金牛座",
        "salePrice": "12888.00",
        "productId": 92,
        "saleStatus": 1,
        "creatorName": "42-FutureLab",
        "chainAccountAddress": "j9UvTLhe8uxZxqQ49SQCzHdq1orzXN8xt",
        "createTime": "2022-06-03 11:35:26",
        "updateTime": "2022-06-03 11:35:25",
        "blindBoxLevelIcon": ""
      },
      {
        "hangingId": 1293105,
        "hangingNo": "48223165422732431842894",
        "shardId": 3422,
        "image": "https://img.42verse.shop/crmebimage/public/content/2022/04/10/507917450d1f4045a87f4522bb1dee2acnicp1eipz.jpg",
        "storeName": "创世纪-DAY5",
        "salePrice": "1500.00",
        "productId": 49,
        "saleStatus": 1,
        "creatorName": "42-FutureLab",
        "chainAccountAddress": "oHcR8BkwWMmuBYDj6gbUFBGRVLv7rrnLK",
        "createTime": "2022-06-03 11:35:24",
        "updateTime": "2022-06-03 11:35:24",
        "blindBoxLevelIcon": ""
      }
    ]
  }
}